[{
  "id": 1,
  "title": "20 Leguas de Viaje Submarino",
  "category": "Libros - Ciencia Ficcion",
  "author": "Julio Verne",
  "description": "",
  "image": null,
  "images": []
}, {
  "id": 2,
  "title": "Dune",
  "category": "Libros - Ciencia Ficcion",
  "author": "Frank Herbert",
  "description": "",
  "image": null,
  "images": []
}, {
  "id": 3,
  "title": "La Mordidita",
  "category": "Musica - Pop",
  "author": "Ricky Martin",
  "description": "",
  "image": null,
  "images": []
}]
